{
    "label": "Objets",
    "mapping": {
        "description": "system.description",
        "book_reference": "system.book_reference"
    },
    "entries": [
        {
            "id": "Tattoo Needles",
            "name": "Aiguilles de tatoueur",
            "description": "",
            "book_reference": "Livre de Règles p.242"
        },
        {
            "id": "Finger of Jade",
            "name": "Doigt de jade",
            "description": "",
            "book_reference": "Livre de Règles p.242"
        },
        {
            "id": "Chopsticks",
            "name": "Baguettes",
            "description": "",
            "book_reference": "Livre de Règles p.242"
        },
        {
            "id": "Quiver of Arrow",
            "name": "Carquois",
            "description": "",
            "book_reference": "Livre de Règles p.242"
        },
        {
            "id": "Rope (By the Foot)",
            "name": "Corde",
            "description": "",
            "book_reference": "Livre de Règles p.242"
        },
        {
            "id": "Sake Cup",
            "name": "Coupe à saké",
            "description": "",
            "book_reference": "Livre de Règles p.242"
        },
        {
            "id": "Lucky Cricket",
            "name": "Criquet porte-bonheur",
            "description": "",
            "book_reference": "Livre de Règles p.242"
        },
        {
            "id": "Bottle of Sake",
            "name": "Cruche de saké",
            "description": "",
            "book_reference": "Livre de Règles p.242"
        },
        {
            "id": "Dice and Cup",
            "name": "Dés et gobelet",
            "description": "",
            "book_reference": "Livre de Règles p.242"
        },
        {
            "id": "Sweets (Four Servings)",
            "name": "Douceurs (4 portions)",
            "description": "",
            "book_reference": "Livre de Règles p.242"
        },
        {
            "id": "Spices",
            "name": "Epices",
            "description": "",
            "book_reference": "Livre de Règles p.243"
        },
        {
            "id": "Musical Instrument",
            "name": "Instrument de musique",
            "description": "",
            "book_reference": "Livre de Règles p.243"
        },
        {
            "id": "Games",
            "name": "Jeux",
            "description": "",
            "book_reference": "Livre de Règles p.243"
        },
        {
            "id": "Kubi Bukuro",
            "name": "Kubi Bukuro",
            "description": "",
            "book_reference": "Livre de Règles p.243"
        },
        {
            "id": "Pillow Book",
            "name": "Livre de chevet",
            "description": "",
            "book_reference": "Livre de Règles p.243"
        },
        {
            "id": "Bowyer’s Kit",
            "name": "Nécessaire d'archer",
            "description": "",
            "book_reference": "Livre de Règles p.243"
        },
        {
            "id": "Calligraphy Set",
            "name": "Nécessaire de calligraphie",
            "description": "",
            "book_reference": "Livre de Règles p.243"
        },
        {
            "id": "Divination Kit",
            "name": "Nécessaire de divination",
            "description": "",
            "book_reference": "Livre de Règles p.243"
        },
        {
            "id": "Medicine Kit",
            "name": "Nécessaire médical",
            "description": "",
            "book_reference": "Livre de Règles p.244"
        },
        {
            "id": "Omamori",
            "name": "Omamori",
            "description": "",
            "book_reference": "Livre de Règles p.244"
        },
        {
            "id": "Umbrella",
            "name": "Ombrelle",
            "description": "",
            "book_reference": "Livre de Règles p.244"
        },
        {
            "id": "Whetstone",
            "name": "Pierre à aiguiser",
            "description": "",
            "book_reference": "Livre de Règles p.244"
        },
        {
            "id": "Poison (One Vial)",
            "name": "Poison (une dose)",
            "description": "",
            "book_reference": "Livre de Règles p.244"
        },
        {
            "id": "Daishō Stand",
            "name": "Présentoir de Daishō",
            "description": "",
            "book_reference": "Livre de Règles p.245"
        },
        {
            "id": "Traveling Rations",
            "name": "Rations de voyage",
            "description": "",
            "book_reference": "Livre de Règles p.245"
        },
        {
            "id": "Personal Seal or Chop",
            "name": "Sceau ou tampon personnel",
            "description": "",
            "book_reference": "Livre de Règles p.245"
        },
        {
            "id": "Tea Set (Portable)",
            "name": "Service à thé (portatif)",
            "description": "",
            "book_reference": "Livre de Règles p.245"
        },
        {
            "id": "Tent (Chomchong)",
            "name": "Tente (Chomchong)",
            "description": "",
            "book_reference": "Livre de Règles p.245"
        },
        {
            "id": "Tent (Small)",
            "name": "Tente (Petite)",
            "description": "",
            "book_reference": "Livre de Règles p.245"
        },
        {
            "id": "Tent (Yurt)",
            "name": "Tente (Yourte)",
            "description": "",
            "book_reference": "Livre de Règles p.245"
        },
        {
            "id": "Scroll satchel",
            "name": "Sacoche à rouleaux",
            "description": "",
            "book_reference": "Livre de Règles"
        },
        {
            "id": "Traveling pack",
            "name": "Sac de Voyage",
            "description": "",
            "book_reference": "Livre de Règles"
        },
        {
            "id": "Journal of observations",
            "name": "Journal d'observations",
            "description": "",
            "book_reference": "Livre de Règles"
        },
        {
            "id": "Omamori (Boon of Jurojin)",
            "name": "Omamori (Bienfait de Jurōjin)",
            "description": "",
            "book_reference": "Les Royaumes Célestes p.97"
        },
        {
            "id": "Omamori (Boon of Kisshoten)",
            "name": "Omamori (Bienfait de Kisshōten)",
            "description": "",
            "book_reference": "Les Royaumes Célestes p.97"
        },
        {
            "id": "Omamori (Boon of Hotei)",
            "name": "Omamori (Bienfait de Hotei)",
            "description": "",
            "book_reference": "Les Royaumes Célestes p.97"
        },
        {
            "id": "Makeup Kit",
            "name": "Nécessaire de maquillage",
            "description": "",
            "book_reference": "Les Cours de Pierre p.105"
        },
        {
            "id": "Ceremonial Tea Set",
            "name": "Service à thé de cérémonie",
            "description": "",
            "book_reference": "Les Cours de Pierre p.106"
        },
        {
            "id": "Folding Fan",
            "name": "Eventail pliant",
            "description": "",
            "book_reference": "Les Cours de Pierre p.105"
        },
        {
            "id": "Mono Imi Fuda (Taboo Plaque)",
            "name": "Mono Imi Fuda (Plaque du Tabou)",
            "description": "",
            "book_reference": "Les Cours de Pierre p.105"
        },
        {
            "id": "Mari (Ball)",
            "name": "Mari (Balle)",
            "description": "",
            "book_reference": "Les Cours de Pierre p.105"
        },
        {
            "id": "Amigasa",
            "name": "Amigasa",
            "description": "",
            "book_reference": "Les Cours de Pierre p.106"
        },
        {
            "id": "Norimono (Planquin)",
            "name": "Norimono (Palanquin)",
            "description": "",
            "book_reference": "Les Cours de Pierre p.106"
        },
        {
            "id": "Performer's Boat",
            "name": "Ponton de musiciens",
            "description": "",
            "book_reference": "Les Cours de Pierre p.106"
        },
        {
            "id": "Makibishi",
            "name": "Makibishi",
            "description": "",
            "book_reference": "Les Cours de Pierre p.107"
        },
        {
            "id": "Metsubushi",
            "name": "Metsubushi",
            "description": "",
            "book_reference": "Les Cours de Pierre p.107"
        },
        {
            "id": "Invisible Ink",
            "name": "Encre invisible",
            "description": "",
            "book_reference": "Les Cours de Pierre p.107"
        },
        {
            "id": "Disguise Kit",
            "name": "Nécessaire de déguisement",
            "description": "",
            "book_reference": "Les Cours de Pierre p.108"
        },
        {
            "id": "Demon Mask",
            "name": "Masque de démon",
            "description": "",
            "book_reference": "Les Cours de Pierre p.107"
        },
        {
            "id": "Bamboo Cane",
            "name": "Canne en bambou",
            "description": "",
            "book_reference": "Les Cours de Pierre p.107"
        },
        {
            "id": "Herbal Medicines",
            "name": "Remèdes aux plantes",
            "description": "",
            "book_reference": "Les Cours de Pierre p.109"
        },
        {
            "id": "Modified Scabbard",
            "name": "Fourreau modifié",
            "description": "",
            "book_reference": "Les Cours de Pierre p.107"
        },
        {
            "id": "Portable Boat",
            "name": "Radeau Portable",
            "description": "",
            "book_reference": "Les Cours de Pierre p.108"
        },
        {
            "id": "Rope Ladder",
            "name": "Echelle de corde",
            "description": "",
            "book_reference": "Les Cours de Pierre p.107"
        },
        {
            "id": "Opening and Closing Tools",
            "name": "Nécessaire de crochetage",
            "description": "",
            "book_reference": "Les Cours de Pierre p.108"
        },
        {
            "id": "Mizugumo (Water Spider)",
            "name": "Mizugumo (Araignée d'eau)",
            "description": "",
            "book_reference": "Les Cours de Pierre p.108"
        },
        {
            "id": "Sekihitsu",
            "name": "Sekihitsu",
            "description": "",
            "book_reference": "Les Cours de Pierre p.109"
        },
        {
            "id": "Tenugui",
            "name": "Tenugui",
            "description": "",
            "book_reference": "Les Cours de Pierre p.109"
        },
        {
            "id": "Uchitake",
            "name": "Uchitake",
            "description": "",
            "book_reference": "Les Cours de Pierre p.109"
        },
        {
            "id": "Sokutoki",
            "name": "Sokutoki",
            "description": "",
            "book_reference": "Les Cours de Pierre p.109"
        },
        {
            "id": "Travel Rations",
            "name": "Rations de voyage",
            "description": "",
            "book_reference": "La Voie des Vagues p.114"
        },
        {
            "id": "Cooking Kit",
            "name": "Nécessaire de cuisine",
            "description": "",
            "book_reference": "La Voie des Vagues p.114"
        },
        {
            "id": "Dice Kit",
            "name": "Dés à jouer",
            "description": "",
            "book_reference": "La Voie des Vagues p.114"
        },
        {
            "id": "Alchemy Kit",
            "name": "Nécessaire d’alchimie",
            "description": "",
            "book_reference": "La Voie des Vagues p.114"
        },
        {
            "id": "Fishing kit",
            "name": "Nécessaire de pêche",
            "description": "",
            "book_reference": "La Voie des Vagues p.115"
        },
        {
            "id": "Tailor's Kit",
            "name": "Nécessaire de couture",
            "description": "",
            "book_reference": "La Voie des Vagues p.114"
        },
        {
            "id": "Weaver's Kit",
            "name": "Nécessaire de tissage",
            "description": "",
            "book_reference": "La Voie des Vagues p.115"
        },
        {
            "id": "Mason's Kit",
            "name": "Nécessaire de maçonnerie",
            "description": "",
            "book_reference": "La Voie des Vagues p.115"
        },
        {
            "id": "Chandu",
            "name": "Chandu (Opium)",
            "description": "",
            "book_reference": "La Voie des Vagues p.115"
        },
        {
            "id": "Thievery Kit",
            "name": "Nécessaire de cambriolage",
            "description": "",
            "book_reference": "La Voie des Vagues p.116"
        },
        {
            "id": "Poppy Tea",
            "name": "Thé de pavot",
            "description": "",
            "book_reference": "La Voie des Vagues p.116"
        },
        {
            "id": "Shikomizue",
            "name": "Shikomizue",
            "description": "",
            "book_reference": "La Voie des Vagues p.116"
        },
        {
            "id": "Climbing Kit",
            "name": "Matériel d'escalade",
            "description": "",
            "book_reference": "L’Outremonde p.106"
        },
        {
            "id": "Spyglass",
            "name": "Longue-vue",
            "description": "",
            "book_reference": "L’Outremonde p.106"
        },
        {
            "id": "Tate",
            "name": "Tate",
            "description": "",
            "book_reference": "L’Outremonde p.106"
        },
        {
            "id": "Taketaba",
            "name": "Taketaba",
            "description": "",
            "book_reference": "L’Outremonde p.106"
        },
        {
            "id": "Smithy's Kit",
            "name": "Nécessaire de Forgeron",
            "description": "",
            "book_reference": "L’Outremonde p.106"
        },
        {
            "id": "Sapper's Kit",
            "name": "Nécessaire de Sapeur-Minier",
            "description": "",
            "book_reference": "L’Outremonde p.106"
        },
        {
            "id": "Engineer's Kit",
            "name": "Nécessaire d'Ingénieur",
            "description": "",
            "book_reference": "L’Outremonde p.106"
        },
        {
            "id": "Smoke Arrows",
            "name": "Flèches fumigènes",
            "description": "",
            "book_reference": "L’Outremonde p.106"
        },
        {
            "id": "Astrolabe",
            "name": "Astrolabe",
            "description": "",
            "book_reference": "Le Clan de la Mante p.9"
        },
        {
            "id": "Fishing Rod and Line",
            "name": "Canne à pêche et ligne",
            "description": "",
            "book_reference": "Le Clan de la Mante p.9"
        },
        {
            "id": "TaraiBune",
            "name": "TaraiBune",
            "description": "",
            "book_reference": "Le Clan de la Mante p.9"
        },
        {
            "id": "Animal Helm",
            "name": "Casque animal",
            "description": "",
            "book_reference": "Les Champs de la Victoire p.90"
        },
        {
            "id": "Blasting Powder (1 charge)",
            "name": "Poudre noire (1 charge)",
            "description": "",
            "book_reference": "Les Champs de la Victoire p.91"
        },
        {
            "id": "Battlefield Heirloom",
            "name": "Héritage guerrier",
            "description": "",
            "book_reference": "Les Champs de la Victoire p.90"
        },
        {
            "id": "Battlefield Medical Pack",
            "name": "Fournitures médicales de terrain",
            "description": "",
            "book_reference": "Les Champs de la Victoire p.90"
        },
        {
            "id": "Brilliant Flare",
            "name": "Fusée éclairante",
            "description": "",
            "book_reference": "Les Champs de la Victoire p.90"
        },
        {
            "id": "Mempō",
            "name": "Menpō",
            "description": "",
            "book_reference": "Les Champs de la Victoire p.90"
        },
        {
            "id": "Saihai",
            "name": "Saihai",
            "description": "",
            "book_reference": "Les Champs de la Victoire p.91"
        },
        {
            "id": "Sashimono",
            "name": "Sashimono",
            "description": "",
            "book_reference": "Les Champs de la Victoire p.91"
        },
        {
            "id": "Smoking Pipe",
            "name": "Pipe",
            "description": "",
            "book_reference": "Les Champs de la Victoire p.91"
        },
        {
            "id": "Tetsubishi",
            "name": "Tetsubishi",
            "description": "",
            "book_reference": "Les Champs de la Victoire p.91"
        },
        {
            "id": "Uma-Jirushi",
            "name": "Uma-Jirushi",
            "description": "",
            "book_reference": "Les Champs de la Victoire p.91"
        },
        {
            "id": "Banner of Amaterasu [Blessed Treasure]",
            "name": "La Bannière d’Amaterasu",
            "description": "",
            "book_reference": "Les Champs de la Victoire p.92"
        },
        {
            "id": "The Claws of the Kitsu [Blessed Treasure]",
            "name": "Les Griffes des Kitsu",
            "description": "",
            "book_reference": "Les Champs de la Victoire p.92"
        },
        {
            "id": "Leadership Scrolls [Blessed Treasure]",
            "name": "Rouleaux du Commandement",
            "description": "",
            "book_reference": "Les Champs de la Victoire p.92"
        },
        {
            "id": "The Anvil of Despair [Concealed Horror]",
            "name": "L’Enclume du désespoir [Horreur Cachée]",
            "description": "",
            "book_reference": "L’Outremonde p.111"
        },
        {
            "id": "The Black Pearls of Fu Leng [Concealed Horror]",
            "name": "Les Perles noires de Fu Leng [Horreur Cachée]",
            "description": "",
            "book_reference": "L’Outremonde p.111"
        },
        {
            "id": "The Henge-Okurimono [Concealed Horror]",
            "name": "Les Henge-okurimono [Horreur Cachée]",
            "description": "",
            "book_reference": "L’Outremonde p.111"
        },
        {
            "id": "The Porcelain Mask of Fu Leng [Concealed Horror]",
            "name": "Le Masque de porcelaine de Fu Leng [Horreur Cachée]",
            "description": "",
            "book_reference": "L’Outremonde p.111"
        },
        {
            "id": "The Jade Cups of Taira [Blessed Treasure]",
            "name": "Les coupes de Jade de Taira [Trésor Béni]",
            "description": "",
            "book_reference": "L’Outremonde p.112"
        },
        {
            "id": "Jade Petal Tea [Blessed Treasure]",
            "name": "Thé de pétales de Jade [Trésor Béni]",
            "description": "",
            "book_reference": "L’Outremonde p.113"
        },
        {
            "id": "Obsidian Ink [Blessed Treasure]",
            "name": "Encre d’obsidienne [Trésor Béni]",
            "description": "",
            "book_reference": "L’Outremonde p.113"
        },
        {
            "id": "Arrows",
            "name": "Flèches",
            "description": "",
            "book_reference": "Livre de Règles"
        },
        {
            "id": "Arrows : Fire-Blossom",
            "name": "Flèches : Braises ardentes",
            "description": "",
            "book_reference": "Les Royaumes Célestes p.97"
        },
        {
            "id": "Arrows : Hamaya",
            "name": "Flèches : Hamaya",
            "description": "",
            "book_reference": "Les Royaumes Célestes p.97"
        },
        {
            "id": "Arrows : Soul-Star",
            "name": "Flèches : Éclat d’âme",
            "description": "",
            "book_reference": "Les Royaumes Célestes p.97"
        },
        {
            "id": "The horagai of Sacred Rains",
            "name": "Le horagai des Pluies sacrées",
            "description": "",
            "book_reference": "Les Royaumes Célestes p.96"
        },
        {
            "id": "Daikoku's Mallet",
            "name": "Le maillet de Daikoku",
            "description": "",
            "book_reference": "Les Royaumes Célestes p.96"
        },
        {
            "id": "Candles of the Moth",
            "name": "Les chandelles du Clan de la Phalène",
            "description": "",
            "book_reference": "Les Royaumes Célestes p.96"
        }
    ]
}
