{
    "entries": {
        "L5R5e System": "Système L5R5e",
        "Character related": "Liés aux Personnages",
        "Techniques": "Techniques",
        "Objects related": "Liés aux Objets",
        "Helpers": "Aides",
        "Tools": "Outils"
    }
}
